%!PS-Adobe-3.0 EPSF-3.0
%%BoundingBox: 0 0 200 200
%%LanguageLevel: 2
/eps_state save def
/showpage { } def

/q { gsave } bind def
/Q { grestore } bind def
/cm { 6 array astore concat } bind def
/w { setlinewidth } bind def
/J { setlinecap } bind def
/j { setlinejoin } bind def
/M { setmiterlimit } bind def
/d { setdash } bind def
/m { moveto } bind def
/l { lineto } bind def
/c { curveto } bind def
/h { closepath } bind def
/re { exch dup neg 3 1 roll 5 3 roll moveto 0 rlineto
      0 exch rlineto 0 rlineto closepath } bind def
/S { stroke } bind def
/f { fill } bind def
/f* { eofill } bind def
/n { newpath } bind def
/W { clip } bind def
/W* { eoclip } bind def
/BT { } bind def
/ET { } bind def
/pdfmark where { pop globaldict /?pdfmark /exec load put }
    { globaldict begin /?pdfmark /pop load def /pdfmark
    /cleartomark load def end } ifelse
/BDC { mark 3 1 roll /BDC pdfmark } bind def
/EMC { mark /EMC pdfmark } bind def
/cairo_store_point { /cairo_point_y exch def /cairo_point_x exch def } def
/Tj { show currentpoint cairo_store_point } bind def
/TJ {
  {
    dup
    type /stringtype eq
    { show } { -0.001 mul 0 cairo_font_matrix dtransform rmoveto } ifelse
  } forall
  currentpoint cairo_store_point
} bind def
/cairo_selectfont { cairo_font_matrix aload pop pop pop 0 0 6 array astore
    cairo_font exch selectfont cairo_point_x cairo_point_y moveto } bind def
/Tf { pop /cairo_font exch def /cairo_font_matrix where
      { pop cairo_selectfont } if } bind def
/Td { matrix translate cairo_font_matrix matrix concatmatrix dup
      /cairo_font_matrix exch def dup 4 get exch 5 get cairo_store_point
      /cairo_font where { pop cairo_selectfont } if } bind def
/Tm { 2 copy 8 2 roll 6 array astore /cairo_font_matrix exch def
      cairo_store_point /cairo_font where { pop cairo_selectfont } if } bind def
/g { setgray } bind def
/rg { setrgbcolor } bind def
/d1 { setcachedevice } bind def

/pattern {
0 0.391 m 40 0.391 60 20.391 100 20.391 c 140 20.391 160 0.391 200 
0.391 c S Q
q 1 0 0 -1 0 256.799988 cm
0 0.391 m 40 0.391 60 20.391 100 20.391 c 140 20.391 160 0.391 200 
0.391 c S Q
q 1 0 0 -1 0 256.799988 cm
0 4.391 m 40 4.391 60 24.391 100 24.391 c 140 24.391 160 4.391 200 
4.391 c S Q
q 1 0 0 -1 0 256.799988 cm
0 8.391 m 40 8.391 60 28.391 100 28.391 c 140 28.391 160 8.391 200 
8.391 c S Q
q 1 0 0 -1 0 256.799988 cm
0 12.391 m 40 12.391 60 32.391 100 32.391 c 140 32.391 160 12.391 200 
12.391 c S Q
q 1 0 0 -1 0 256.799988 cm
0 16.391 m 40 16.391 60 36.391 100 36.391 c 140 36.391 160 16.391 200 
16.391 c S Q
q 1 0 0 -1 0 256.799988 cm
0 20.391 m 40 20.391 60 40.391 100 40.391 c 140 40.391 160 20.391 200 
20.391 c S Q
q 1 0 0 -1 0 256.799988 cm
0 24.391 m 40 24.391 60 44.391 100 44.391 c 140 44.391 160 24.391 200 
24.391 c S Q
q 1 0 0 -1 0 256.799988 cm
0 28.391 m 40 28.391 60 48.391 100 48.391 c 140 48.391 160 28.391 200 
28.391 c S Q
q 1 0 0 -1 0 256.799988 cm
0 32.391 m 40 32.391 60 52.391 100 52.391 c 140 52.391 160 32.391 200 
32.391 c S Q
q 1 0 0 -1 0 256.799988 cm
0 36.391 m 40 36.391 60 56.391 100 56.391 c 140 56.391 160 36.391 200 
36.391 c S Q
q 1 0 0 -1 0 256.799988 cm
0 40.391 m 40 40.391 60 60.391 100 60.391 c 140 60.391 160 40.391 200 
40.391 c S Q
q 1 0 0 -1 0 256.799988 cm
0 44.391 m 40 44.391 60 64.391 100 64.391 c 140 64.391 160 44.391 200 
44.391 c S Q
q 1 0 0 -1 0 256.799988 cm
0 48.391 m 40 48.391 60 68.391 100 68.391 c 140 68.391 160 48.391 200 
48.391 c S Q
q 1 0 0 -1 0 256.799988 cm
0 52.391 m 40 52.391 60 72.391 100 72.391 c 140 72.391 160 52.391 200 
52.391 c S Q
q 1 0 0 -1 0 256.799988 cm
0 56.391 m 40 56.391 60 76.391 100 76.391 c 140 76.391 160 56.391 200 
56.391 c S Q
q 1 0 0 -1 0 256.799988 cm
0 60.391 m 40 60.391 60 80.391 100 80.391 c 140 80.391 160 60.391 200 
60.391 c S Q
q 1 0 0 -1 0 256.799988 cm
0 64.391 m 40 64.391 60 84.391 100 84.391 c 140 84.391 160 64.391 200 
64.391 c S Q
q 1 0 0 -1 0 256.799988 cm
0 68.391 m 40 68.391 60 88.391 100 88.391 c 140 88.391 160 68.391 200 
68.391 c S Q
q 1 0 0 -1 0 256.799988 cm
0 72.391 m 40 72.391 60 92.391 100 92.391 c 140 92.391 160 72.391 200 
72.391 c S Q
q 1 0 0 -1 0 256.799988 cm
0 76.391 m 40 76.391 60 96.391 100 96.391 c 140 96.391 160 76.391 200 
76.391 c S Q
q 1 0 0 -1 0 256.799988 cm
0 80.391 m 40 80.391 60 100.391 100 100.391 c 140 100.391 160 80.391 
200 80.391 c S Q
q 1 0 0 -1 0 256.799988 cm
0 84.391 m 40 84.391 60 104.391 100 104.391 c 140 104.391 160 84.391 
200 84.391 c S Q
q 1 0 0 -1 0 256.799988 cm
0 88.391 m 40 88.391 60 108.391 100 108.391 c 140 108.391 160 88.391 
200 88.391 c S Q
q 1 0 0 -1 0 256.799988 cm
0 92.391 m 40 92.391 60 112.391 100 112.391 c 140 112.391 160 92.391 
200 92.391 c S Q
q 1 0 0 -1 0 256.799988 cm
0 96.391 m 40 96.391 60 116.391 100 116.391 c 140 116.391 160 96.391 
200 96.391 c S Q
q 1 0 0 -1 0 256.799988 cm
0 100.391 m 40 100.391 60 120.391 100 120.391 c 140 120.391 160 100.391 
200 100.391 c S Q
q 1 0 0 -1 0 256.799988 cm
0 104.391 m 40 104.391 60 124.391 100 124.391 c 140 124.391 160 104.391 
200 104.391 c S Q
q 1 0 0 -1 0 256.799988 cm
0 108.391 m 40 108.391 60 128.391 100 128.391 c 140 128.391 160 108.391 
200 108.391 c S Q
q 1 0 0 -1 0 256.799988 cm
0 112.391 m 40 112.391 60 132.391 100 132.391 c 140 132.391 160 112.391 
200 112.391 c S Q
q 1 0 0 -1 0 256.799988 cm
0 116.391 m 40 116.391 60 136.391 100 136.391 c 140 136.391 160 116.391 
200 116.391 c S Q
q 1 0 0 -1 0 256.799988 cm
0 120.391 m 40 120.391 60 140.391 100 140.391 c 140 140.391 160 120.391 
200 120.391 c S Q
q 1 0 0 -1 0 256.799988 cm
0 124.391 m 40 124.391 60 144.391 100 144.391 c 140 144.391 160 124.391 
200 124.391 c S Q
q 1 0 0 -1 0 256.799988 cm
0 128.391 m 40 128.391 60 148.391 100 148.391 c 140 148.391 160 128.391 
200 128.391 c S Q
q 1 0 0 -1 0 256.799988 cm
0 132.391 m 40 132.391 60 152.391 100 152.391 c 140 152.391 160 132.391 
200 132.391 c S Q
q 1 0 0 -1 0 256.799988 cm
0 136.391 m 40 136.391 60 156.391 100 156.391 c 140 156.391 160 136.391 
200 136.391 c S Q
q 1 0 0 -1 0 256.799988 cm
0 140.391 m 40 140.391 60 160.391 100 160.391 c 140 160.391 160 140.391 
200 140.391 c S Q
q 1 0 0 -1 0 256.799988 cm
0 144.391 m 40 144.391 60 164.391 100 164.391 c 140 164.391 160 144.391 
200 144.391 c S Q
q 1 0 0 -1 0 256.799988 cm
0 148.391 m 40 148.391 60 168.391 100 168.391 c 140 168.391 160 148.391 
200 148.391 c S Q
q 1 0 0 -1 0 256.799988 cm
0 152.391 m 40 152.391 60 172.391 100 172.391 c 140 172.391 160 152.391 
200 152.391 c S Q
q 1 0 0 -1 0 256.799988 cm
0 156.391 m 40 156.391 60 176.391 100 176.391 c 140 176.391 160 156.391 
200 156.391 c S Q
q 1 0 0 -1 0 256.799988 cm
0 160.391 m 40 160.391 60 180.391 100 180.391 c 140 180.391 160 160.391 
200 160.391 c S Q
q 1 0 0 -1 0 256.799988 cm
0 164.391 m 40 164.391 60 184.391 100 184.391 c 140 184.391 160 164.391 
200 164.391 c S Q
q 1 0 0 -1 0 256.799988 cm
0 168.391 m 40 168.391 60 188.391 100 188.391 c 140 188.391 160 168.391 
200 168.391 c S Q
q 1 0 0 -1 0 256.799988 cm
0 172.391 m 40 172.391 60 192.391 100 192.391 c 140 192.391 160 172.391 
200 172.391 c S Q
q 1 0 0 -1 0 256.799988 cm
0 176.391 m 40 176.391 60 196.391 100 196.391 c 140 196.391 160 176.391 
200 176.391 c S Q
q 1 0 0 -1 0 256.799988 cm
0 180.391 m 40 180.391 60 200.391 100 200.391 c 140 200.391 160 180.391 
200 180.391 c S Q
q 1 0 0 -1 0 256.799988 cm
0 184.391 m 40 184.391 60 204.391 100 204.391 c 140 204.391 160 184.391 
200 184.391 c S Q
q 1 0 0 -1 0 256.799988 cm
0 188.391 m 40 188.391 60 208.391 100 208.391 c 140 208.391 160 188.391 
200 188.391 c S Q
q 1 0 0 -1 0 256.799988 cm
0 192.391 m 40 192.391 60 212.391 100 212.391 c 140 212.391 160 192.391 
200 192.391 c S Q
q 1 0 0 -1 0 256.799988 cm
0 196.391 m 40 196.391 60 216.391 100 216.391 c 140 216.391 160 196.391 
200 196.391 c S Q
q 1 0 0 -1 0 256.799988 cm
0 200.391 m 40 200.391 60 220.391 100 220.391 c 140 220.391 160 200.391 
200 200.391 c S Q
q 1 0 0 -1 0 256.799988 cm
0 204.391 m 40 204.391 60 224.391 100 224.391 c 140 224.391 160 204.391 
200 204.391 c S Q
q 1 0 0 -1 0 256.799988 cm
0 208.391 m 40 208.391 60 228.391 100 228.391 c 140 228.391 160 208.391 
200 208.391 c S Q
q 1 0 0 -1 0 256.799988 cm
0 212.391 m 40 212.391 60 232.391 100 232.391 c 140 232.391 160 212.391 
200 212.391 c S Q
q 1 0 0 -1 0 256.799988 cm
0 216.391 m 40 216.391 60 236.391 100 236.391 c 140 236.391 160 216.391 
200 216.391 c S Q
q 1 0 0 -1 0 256.799988 cm
0 220.391 m 40 220.391 60 240.391 100 240.391 c 140 240.391 160 220.391 
200 220.391 c S Q
q 1 0 0 -1 0 256.799988 cm
0 224.391 m 40 224.391 60 244.391 100 244.391 c 140 244.391 160 224.391 
200 224.391 c S Q
q 1 0 0 -1 0 256.799988 cm
0 228.391 m 40 228.391 60 248.391 100 248.391 c 140 248.391 160 228.391 
200 228.391 c S Q
q 1 0 0 -1 0 256.799988 cm
0 232.391 m 40 232.391 60 252.391 100 252.391 c 140 252.391 160 232.391 
200 232.391 c S Q
q 1 0 0 -1 0 256.799988 cm
0 236.391 m 40 236.391 60 256.391 100 256.391 c 140 256.391 160 236.391 
200 236.391 c S Q
} def

2 2 scale
300 300 translate

pattern

3 3 translate

pattern

%0 6 100 { 
    %/y exch def 
    %0 y translate
    %pattern
%} for

showpage
eps_state restore
