%!PS-Adobe-3.0 EPSF-3.0 %%BoundingBox: 0 0 2522.834645669 1445.669291339
%%LanguageLevel: 3
% vim:set makeprg="gs -dTextAlphaBits=4 -dGraphicsAlphaBits=4 %":

/eps_state save def

/dim 252.2834645669 def		% dimensions of the screen in points
/dim2 144.5669291339 def	% dim / 2


/myrand {rand 2147483647 div 2 mul 1 sub} def	% random number between -1...1

/figb {             % Figure B
    /p1 3 def		% period for first (reference) dot screen
    /p2 3 def		% period for second dot screen

    /p1y 3 def		% period for first (reference) dot screen
    /p2y 3 def		% period for second dot screen

    /xmax 1 def	% the x axis units will be scaled before applying the mappings so
            % that the max. axis value becomes "xmax units" rather than "dim2 ci".
    /ymax 1 def	% the y axis units will be scaled before applying the mappings so
            % that the max. axis value becomes "ymax units" rather than "dim2 ci".

    /rr 0 def	% random numbers will be generated in the range -rr...rr
            % (in PostScript points!)


    % draw first (reference) dot screen:

    8 srand		% seed for rand


    /y 0 def % - dim2

    gsave
    0.8 0.8 scale
    0 p1y dim {	% draw horizontal lines
        newpath
        /x dim2 neg def
        /ysave exch dim2 p1y div round p1y mul sub def
        0 p1 dim {	% draw a horizontal line of dots
            /xsave exch dim2 p1 div round p1 mul sub def
            /x1 x dim2 div xmax mul def
            /y1 y dim2 div ymax mul def
            xsave x sub
            x 2 x1 mul y1 mul 0.5 mul add				% g1(x,y)
            add
            myrand rr mul sub 

            ysave y sub
            y y1 y1 mul x1 x1 mul sub 0.5 mul add			% g2(x,y)
            add 
            myrand rr mul sub moveto
            0 0 rlineto
            /x x p1 add def
        } for
        stroke
        /y y p1y add def
    } for
    grestore
} def

/figd {
    /p1 3 def		% period for first (reference) dot screen
    /p2 3 def		% period for second dot screen

    /xmax 3 180 mul def	% the x axis units will be scaled before applying the mappings so
            % that the max. axis value becomes "xmax units" rather than "dim2 ci".
    /ymax 0.1 dim2 mul def	% the y axis units will be scaled before applying the mappings so
            % that the max. axis value becomes "ymax units" rather than "dim2 ci".

    /rr 0 def	% random numbers will be generated in the range -rr...rr
            % (in PostScript points!)


    % draw first (reference) dot screen:

    8 srand		% seed for rand


    /y dim2 neg def

    gsave
    0.8 0.8 scale
    0 p1y dim {		% draw horizontal lines of dots
        newpath
        /x dim2 neg def % -dim2
        /ysave exch dim2 p1y div round p1y mul sub def % exchange dim and random
        0 p1 dim {	% draw a horizontal line of dots
            /xsave exch dim2 p1 div round p1 mul sub def % step
            /x1 x dim2 div xmax mul def % (x divided by dimension 2) multiplied by xmax
            /y1 y dim2 div ymax mul def
            xsave x sub
            x y1 0.5 mul add					% g1(x,y)
            add
            myrand rr mul sub 

            ysave y sub
            y x1 sin neg 0.5 mul add				% g2(x,y)
            add 
            myrand rr mul sub moveto
            0 0 rlineto
            /x x p1 add def
        } for
        stroke
        /y y p1y add def
    } for
    grestore
} def


100 100 translate

0.25 setlinewidth

newpath
0 0 moveto
dim 0 lineto 
dim dim2 lineto
0 dim2 lineto
closepath 
stroke


1 setlinewidth
1 setlinecap


dim 100 sub dim2 100 sub translate




%newpath 0 0 100 0 360 arc closepath clip
figb
%9 rotate
figd
%1 setgray
%newpath 0 0 25 0 360 arc closepath fill

eps_state restore

showpage

